windpark\model\WindengineData.class
windpark\Gk72Application.class
windpark\mom\WindengineSender.class
windpark\mom\WindengineThreadConfig.class
windpark\mom\WindengineService.class
windpark\model\WindengineMessage.class
windpark\mom\WindengineReceiver.class
windpark\WebSecurityConfig.class
windpark\windengine\WindengineSimulation.class
windpark\MvcConfig.class
windpark\windengine\WindengineController.class
windpark\windengine\WindengineControllerExt.class
windpark\windengine\WindengineService.class
